[
  {
    "type": "running",
    "date": "2012-04-23T18:25:43.511Z",
    "pulse": 50
  },
  {
    "type": "swimming",
    "date": "2013-04-23T18:25:43.511Z",
    "pulse": 20
  },
  {
    "type": "skiing",
    "date": "2011-04-23T18:25:43.511Z",
    "pulse": 203
  },
  {
    "type": "skiing",
    "date": "2010-04-23T18:25:43.511Z",
    "pulse": 23
  }
]
